﻿Id,code,question,category,type,icon,has_minimum,control,show_badge_if_value
1,qa,"Including you, how many people live in home ?",Home & Energy,number,people,1,,
2,qb,How many under the age of 14 ?,Home & Energy,number,child,,1,
3,qc,What type of energy powers your home ?,Home & Energy,multiple,,,,
4,qd,Does your home use gas ?,Home & Energy,yes_or_no,,,,
5,qe,How would you describe your diet ?,Diet,multiple,,,,
6,qf,How many hours do you drive each week ?,Travel,number,drive,,,0
7,qg,What kind of vehicle do you drive ?,Travel,multiple,,,1,
8,qh,How many days per week do you take public transport ?,Travel,number,public transport,,,
9,qi,"In the last year, how many roundtrip short domestic flights (< 3 hrs) did you take ?",Travel,number,short domestic flights,,,0
10,qj,"In the last year, how many roundtrip long domestic flights (> 3 hrs) did you take ?",Travel,number,long domestic flights,,,0
11,qk,"In the last year, how many roundtrip short international flights (< 12 hrs) did you take ?",Travel,number,international flights,,,0
12,ql,"In the last year, how many roundtrip long international flights (> 12 hrs) did you take ?",Travel,number,international flights,,,0
13,qm,Which of these do you use on the regular ?,Lifestyle,multiple,,,,
14,qn,On average daily spend makes up more than half our greener rating.,Other daily spend & bills,multiple,,,,