GreenBusinessName,Logo,anzic_cod.pnge
Emporium Hotel South Bank,Emporium Hotels,
Holiday Inn Darling Harbour,Holiday Inn,
Spicers Balfour Hotel,Spicers,
Spicers Potts Point,Spicers,
Sheridan,Sheridan,
Seed Heritage Kids,Seed Heritage,
Seed & Sprout,Seed Sprout,
Energy Locals,Energy Locals,
Sendle,Sendle,
The Sak,The Sak,
Your Food Collective,Your Food Collective,
North Star Holiday Resort,North Star,
The Frames & Emaroo Cottages,The Frames ,
Bungle Bungle Savannah Lodge,Bungle Bungle ,
Mt Barney Lodge,Mt Barney Lodge,
Hidden Valley Cabins,Hidden Valley,
Great Ocean Ecolodge,Great Ocean Ecolodge,
Aquila Eco Lodges,Aquila Eco Lodges,
Beyond Byron E Bikes,Beyond Byron,
A.Kube Aviation,Kube Aviation,
Whitsunday Sailing,Whitsunday Sailing,
Home Valley Station,Home Valley,
Britz Campervans,Britz Campervans,
Old Leura Dairy,Old Leura,
Go West Tours,Go West,
Lets Go Surfing,Lets Go Surfing,
Go Sea Kayak Byron Bay,Go Sea Kayak,
Blue Dolphin Marine Tours,Blue Dolphin,
YHA Apollo Bay,YHA ,
Eldee Station,Eldee Station,
Callicoma Hill Eco-Cabins,Callicoma,
Daintree Ecolodge & Spa,Daintree,
All Seasons Houseboats,All Seasons,
Great Adventures,Great Adventures,
Baird Bay,Baird Bay,
Forest Rise,Forest Rise,
Sea Force Fishing Tours,Sea Force,
Explore Whitsundays,Explore Whitsundays,
Bundeena Kayaks,Bundeena Kayaks,
Moonshadow-TQC Cruises,Moonshadow,
Busselton Jetty,Busselton Jetty,
Ocean Freedom,Ocean Freedom,
Canopy Rainforest Tree Houses,Canopy,
Crystal Creek Meadows,Crystal Creek ,
Innamincka Hotel,Innamincka Hotel,
Elysian Retreat,Elysian ,
Binna Burra Mountain Lodge,Binna Burra ,
Lorne Bush House Cottages,Lorne Bush,
Rawnsley Park Station,Rawnsley ,
O'Reilly's Rainforest Retreat,O'Reilly's,
Bewong River Retreat,Bewong,
Sal Salis Ningaloo Reef,Sal Salis,
Somewhere Unique,Somewhere Unique,
Paperbark Camp,Paperbark Camp,
Yelverton Brook Eco Spa,Yelverton Brook,
Gluepot Reserve,Gluepot,
Nitmiluk Tours,Nitmiluk Tours,
Ocean Safari ,Ocean Safari,
Davidson's Arnhemland Safaris,Davidson's Arnhemland,
Karijini Eco Retreat,Karijini Eco Retreat,
Gwinganna Lifestyle Retreat,Gwinganna,
HeliSpirit,HeliSpirit,
Calypso Star Charters,Calypso Star,
Coral Expeditions,Coral Expeditions,
Kimberley Quest,Kimberley Quest,
Ningaloo Reef Dive and Snorkel,Ningaloo ,
Spirit of Freedom,Spirit of Freedom,
Golden Nugget Discovery Tours,Golden Nugget Discovery Tours,
Diamantina,Diamantina,
1770 LARC! TOURS,1770 LARC,
Leisure Solutions,Leisure Solutions,
Hervey Bay Whale Watch,Hervey Bay,
Hartley's Crocodile Adventures,Hartley's,
Whale Watch Western Australia,Whale Watch,
Eco Beach Resort,Eco Beach,
The Treehouse Retreat,The Treehouse ,
Noonaweena,Noonaweena,
Minjerribah Camping,Minjerribah,
The Shores Holiday Apartments,The Shores ,
On the Wallaby Eco Lodge,On the Wallaby,
The Cove Jervis Bay,The Cove,
Pemberton Discovery Tours,Pemberton,
Otway ECO Tours,Otway,
Adrenalin Snorkel and Dive,Adrenalin,
Down Under Tours (Australia) Pty Ltd,Down Under Tours,
Sealife Charters (Karma IV),Karma,
Charter Yachts Australia,Charter Yachts ,
Charter 1,Charter 1,
Trek Tours,Trek Tours,
Camel Treks Australia,Camel Treks,
Dolphin Swim Australia,Dolphin Swim,
Red Cat Adventures,Red Cat,
Kangaroo Island Odysseys,Flinders,
Heron Island Resort,Heron,
Cooinda Lodge Kakadu,Kakadu,
Bendleby Ranges,Bendleby,
Freycinet Experience ,Freycinet,
 City Terraces ,City Terraces,
Kellys Beach Resort,Kellys,
Kilcunda Oceanview Holiday Retreat,Kilcunda,
Dakini Hideaways,Dakini,
K'gari Fraser Island Adventures,K'gari,
Wavelength Reef Cruises,Wavelength,
Adventure Bay Charters,Adventure Bay,
TreeTops Newcastle,Treetops,
Catninga,Catninga,
Yongala Dive,Yongala,
Tanja Lagoon Camp,Tanja,
Wilpena Pound Resort,Wilpena,
Whitsunday Rent A Yacht,Whitsunday ,
Bedarra Island Resort,Bedarra,
Tangatours,Tangatours,
Tri State Safaris,Tri-state ,
Park Trek Walking Holidays,Parktrek,
NRMA Atherton Tablelands Holiday Park,NRMA,
Tarkine,Tarkine,
Swell Lodge,Swell Lodge,
Coodlie Park Farm Retreat ,Coodlie Park ,
Billabong Retreat,Billabong ,
Magnums Accommodation,Magnums,
Mt Cotton Retreat,Mt Cotton,
Bush Oasis Caravan Park,Bush Oasis ,
Wilderness Escape,Wilderness,
Earth Sanctuary,Earth Sanctuary,
Fun Over Fifty,Fun Over Fifty,
Ningaloo Coral Bay Boats,Ningaloo,
Gecko Canoeing and Trekking,Gecko,
Tour Gold Coast,Gold Coast,
Reef and Rainforest Connections,RNRC,
Boobook Ecotours,Boobook,
SA Eco Tours,SA ECo,
Everglades Eco Safaris,Everglades,
Werribee Open Range Zoo,Werribee,
Imagine Cruises,Imagine,
Pennicott Wilderness Journeys,Pennicott,
Whitehaven Xpress,Whitehaven,
Kangaroo Island Marine Tours,Kangaroo Island,
Lady M Luxury Cruises,Lady M,
Twelve Apostles Lodge Walk,Twelve Apostles,
Habitat Noosa,Habitat Noosa,
Uralba Eco Cottages,Uralba,
Boscia,Boscia,
Ella+Mila,Ella+Mila,
Henne Organics,Henne Organics,
Poopourri,Poopourri,
Hustle Butter,Hustle Butler,
Clean Beauty,Clean Beauty,
Cover Girl,Covergirl,
Garnier,Garnier,
Dermalogica,Dermalogica,
100% Pure,100% Pure,
PB SKN,PB SKN,
Milk Makeup,Milk Makeup,
Aesthetics RX,FALSE,
Dancing Dingo,Dancing Dingo,
FACE atelier ,FACE atelier ,
Nourished Life,Nourished Life,
Gilchrist & Soames,Gilchrist & Soames ,
HAN Skincare Cosmetics,HAN,
ILIA Beauty,ILIA,
Jane Iredale,Jane Iredale,
Mad Hippie,Mad Hippie,
NEUMA Beauty,NEUMA,
Lina Hanson,Lina Hanson,
Tech2,Tech2,
PaintBack,PaintBack,
K18,K18,
HASK,HASK,
Bonnie,Bonnie Caf,
R+Co,R+Co,
Outland Denim,Outland Denim,
Schmidt's Deodorant,Schmidt's,
Bupa,Bupa,
needessentials,needessentials,
TerryWhite Chemmart,TerryWhite Chemmart,
healthSAVE,healthSAVE,
Package Free,Package Free,
BCF,BCF,
Glue Store,Glue Store,
Camilla,Camilla,
Fossil,Fossil,
Charles Tyrwhitt,Charles Tyrwhitt,